{
	"token":"Add Token Here",
	"monkeImages":[
		"https://i.kym-cdn.com/photos/images/newsfeed/002/208/838/9cb.gif",
		"https://i.kym-cdn.com/photos/images/newsfeed/002/051/297/eea.jpg",
		"https://i.kym-cdn.com/photos/images/newsfeed/001/868/005/d29.jpg",
		"https://i.kym-cdn.com/photos/images/original/001/132/314/cbc.jpg",
		"https://youtu.be/cybXLqe_wMU",
		"https://c.tenor.com/4kyfWW2ktHcAAAAd/monkey-animal.gif",
		"https://c.tenor.com/ANKyPTBpy9sAAAAS/monkey-ping.gif",
		"https://c.tenor.com/r_Fti9dsJ2sAAAAd/monkey-banana.gif",
		"https://c.tenor.com/d6e-Rvp97dEAAAAd/monkey-gangster-monkey.gif",
		"https://c.tenor.com/L8clO9uqVDEAAAAd/monkey-dance.gif",
		"https://c.tenor.com/L8clO9uqVDEAAAAd/monkey-dance.gif",
		"https://c.tenor.com/nywtA7PYJrMAAAAd/monke-funny-monke.gif",
		"https://media.discordapp.net/attachments/963264537660903444/963266243668881458/gettyimages-480585465-612x612.jpg",
		"https://media.discordapp.net/attachments/963264537660903444/963266243907952680/94224463_mediaitem94224462.jpg",
		"https://media.discordapp.net/attachments/963264537660903444/963266244214161408/gettyimages-758317927-612x612.jpg",
		"https://media.discordapp.net/attachments/963264537660903444/963266413810843648/ug2x5alhqfl81.webp",
		"https://www.youtube.com/watch?v=c1s3Iekns9k&ab_channel=squizzy",
		"https://www.youtube.com/watch?v=0GCmXOT428s&ab_channel=squizzy",
		"https://c.tenor.com/p34oU47DQ-8AAAAd/monkey-conduciendo.gif",
		"https://www.youtube.com/watch?v=rhWLnxFihNk&ab_channel=MemeZee",
		"https://c.tenor.com/EEa0DfXPQwYAAAAd/prob-proboscis-monkey.gif",
		"https://c.tenor.com/KMBlPlRw66YAAAAC/monkey-excited.gif",
		"https://c.tenor.com/-LlG5WSoK74AAAAi/monkey.gif",
		"https://c.tenor.com/ZmILM8w1KW8AAAAi/monkey-monkey-lick.gif",
		"https://c.tenor.com/RsjutCDdpg0AAAAC/spinning-monkey.gif",
		"https://c.tenor.com/csmPA2hAwK0AAAAC/monkey-spin.gif",
		"https://www.youtube.com/shorts/egYTYpleY0U",
		"https://media.discordapp.net/attachments/963264537660903444/963506172671983626/o6fv3ynfxis81.jpg",
		"https://media.discordapp.net/attachments/963264537660903444/963506283477082293/bswdbtcae6s81.jpg",
		"https://cdn.discordapp.com/attachments/963264537660903444/963506173573730405/1649787876568.mp4",
		"https://cdn.discordapp.com/attachments/963264537660903444/963506131962036254/1649788128908.mp4",
		"https://cdn.discordapp.com/attachments/963264537660903444/963504399785787482/1649787729095.mp4",
		"https://media.discordapp.net/attachments/963264537660903444/963505445115400252/leinpiskf0t81.png",
		"https://media.discordapp.net/attachments/963264537660903444/963502689285722192/tktjy9a673d61.png",
		"https://cdn.discordapp.com/attachments/963264537660903444/963503201158594631/Arab_Monkey.mp4",
		"https://cdn.discordapp.com/attachments/963264537660903444/963453690260377720/1649775648145.mp4",
		"https://media.discordapp.net/attachments/963264537660903444/963453004047077458/b8p1fzy09mf61.jpg",
		"https://cdn.discordapp.com/attachments/963264537660903444/963567678247804938/VID_20220211_150622_823.mp4",
		"https://media.discordapp.net/attachments/963264537660903444/963567677350223952/Orangutan.webp",
		"https://media.discordapp.net/attachments/963264537660903444/963567677056630855/trunk_monke.gif",
		"https://media.discordapp.net/attachments/963264537660903444/963567676830142474/Snapchat-94971934.jpg",
		"https://media.discordapp.net/attachments/963264537660903444/963567676536549436/Orange_monke.png",
		"https://media.discordapp.net/attachments/963264537660903444/963567376455069706/monkey-random-monkey-event.gif?width=374&height=468",
		"https://media.discordapp.net/attachments/963264537660903444/963567375461003274/monke_mukbang.jpg?width=415&height=468",
		"https://media.discordapp.net/attachments/963264537660903444/963567374097854534/monkey-chimp.gif",
		"https://media.discordapp.net/attachments/963264537660903444/963567373531631656/monkey-excited.gif",
		"https://media.discordapp.net/attachments/963264537660903444/963567372055228506/gordon_freeman_monke.png",
		"🐒",
		"https://cdn.discordapp.com/attachments/279820595762429952/765661649050796042/out_2020-10-13-14-45-44.mp4",
		"https://c.tenor.com/aNeWYlAJLZAAAAAC/monkey-eating.gif",
		"https://cdn.discordapp.com/attachments/963264537660903444/963672629091397653/1649827835159.mp4",
		"https://media.discordapp.net/attachments/963264537660903444/963672090052026438/guzv4dom5t161.jpg?width=303&height=468",
		"https://media.discordapp.net/attachments/963264537660903444/963671770974519316/KEAlx3Z.jpg?width=498&height=468",
		"https://media.discordapp.net/attachments/963264537660903444/963671635506913310/2jajfz94k9v51.png?width=375&height=468",
		"https://media.discordapp.net/attachments/963264537660903444/963670453547847690/f9cgdhmvxg971.jpg?width=643&height=468",
		"https://media.discordapp.net/attachments/963264537660903444/963668791462617158/ivj75ggsas781.jpg?width=832&height=468",
		"https://media.discordapp.net/attachments/963264537660903444/963668711644999750/l23hbfm6qfd61.jpg?width=678&height=468",
		"https://media.discordapp.net/attachments/963264537660903444/963667378435158057/oncgdd7dcxs81.png?width=540&height=468",
		"https://c.tenor.com/7hd53a2Fg30AAAAd/monkey-dancing.gif",
		"https://www.youtube.com/watch?v=S3iVkw44VXs",
    "https://media.discordapp.net/attachments/963264537660903444/964980734672637972/unknown.png?width=529&height=468",
    "https://cdn.discordapp.com/attachments/933533661117177906/964657809713160253/fingers_on_the_x.MP4",
    "https://c.tenor.com/-TRtRCie6jkAAAAC/dwinterlude.gif",
    "🍊🍊🍊",
    "Give Me Banan 🍌🍌",
    "OOH OOH AH AH",
     "*gives a chimp some ambien*",
    "🦍",
    "🦍🦍",
    "🦧",
    "***EE EE***",
    "Give orange me give eat orange me eat orange give me eat orange give me you.",
    "https://www.youtube.com/watch?v=yMwIorFCzfk",
    "https://www.youtube.com/watch?v=Yb5D9Q4gZH8&t=0s",
    "*muffled sounds of gorilla violence*",
    "https://www.youtube.com/watch?v=Rx6WB5YJia8",
    "https://www.youtube.com/watch?v=K5z46JJ2CfA",
    "https://media.discordapp.net/attachments/963264537660903444/985279487438635008/unknown.png",
    "https://cdn.discordapp.com/attachments/883499660201832522/989276606927360070/289966358_433341118370628_2564563024697520522_n.mp4",
    "https://www.youtube.com/watch?v=KV02Ziacfhs",
    "https://www.youtube.com/watch?v=ZwS3IkeNXv0",
	"https://www.youtube.com/watch?v=UKpFoYqN9-0",
	"https://cdn.discordapp.com/attachments/963264537660903444/1137005341746405386/Monkey_riding_dog_go_visit_chicken.mp4",
	"https://media.tenor.com/ZozOtLdMSTsAAAAd/karziepoo-monkey.gif",
	"https://media.tenor.com/DCqKIpkPd6cAAAAd/funny-stretcher.gif",
	"https://media.tenor.com/MAifjI8iIuAAAAAd/monkey-chimp.gif",
	"https://media.tenor.com/8zJSdgoXTnEAAAAd/monkey-drum.gif",
	"https://media.tenor.com/r2aUOLtgQ_gAAAAC/piano.gif",
	"https://cdn.discordapp.com/attachments/963264537660903444/1136910627055616090/Screenshot_20230517_154052_Instagram.jpg",
	"https://cdn.discordapp.com/attachments/963264537660903444/1136910626703298631/golden-great-ape.gif",
	"https://media.discordapp.net/attachments/963264537660903444/1136908511490609244/video0-17.mp4"
	]
}
